{
  "name": "toml_parser",
  "url" : "https://gitlab.com/haxe-stencyl/toml_parser",
  "license": "MIT",
  "description": "A TOML Parser",
  "version": "0.0.1",
  "classPath": "src/",
  "releasenote": "Initial release."
}



